^C:\USERS\RODEAMON\SOURCE\REPOS\WORDSEARCH\WORDSEARCH\MAIN.CPP
C:\USERS\RODEAMON\SOURCE\REPOS\WORDSEARCH\WORDSEARCH\DEBUG\VC141.PDB
C:\USERS\RODEAMON\SOURCE\REPOS\WORDSEARCH\WORDSEARCH\DEBUG\VC141.IDB
C:\USERS\RODEAMON\SOURCE\REPOS\WORDSEARCH\WORDSEARCH\DEBUG\MAIN.OBJ
